3.2/simulation/qsim/div.msim.vcd
$comment
	File created using the following command:
		vcd file div.msim.vcd -direction
$end
$date
	Mon Jan 27 20:57:06 2025
$end
$version
	ModelSim Version 2020.1
$end
$timescale
	1ps
$end

$scope module altera_fronted_vhd_vec_tst $end
$var wire 1 ! clk $end
$var wire 1 " HEX [6] $end
$var wire 1 # HEX [5] $end
$var wire 1 $ HEX [4] $end
$var wire 1 % HEX [3] $end
$var wire 1 & HEX [2] $end
$var wire 1 ' HEX [1] $end
$var wire 1 ( HEX [0] $end
$var wire 1 ) KEY [3] $end
$var wire 1 * KEY [2] $end
$var wire 1 + KEY [1] $end
$var wire 1 , KEY [0] $end
$var wire 1 - LEDG $end
$var wire 1 . LEDR [15] $end
$var wire 1 / LEDR [14] $end
$var wire 1 0 LEDR [13] $end
$var wire 1 1 LEDR [12] $end
$var wire 1 2 LEDR [11] $end
$var wire 1 3 LEDR [10] $end
$var wire 1 4 LEDR [9] $end
$var wire 1 5 LEDR [8] $end
$var wire 1 6 LEDR [7] $end
$var wire 1 7 LEDR [6] $end
$var wire 1 8 LEDR [5] $end
$var wire 1 9 LEDR [4] $end
$var wire 1 : LEDR [3] $end
$var wire 1 ; LEDR [2] $end
$var wire 1 < LEDR [1] $end
$var wire 1 = LEDR [0] $end
$var wire 1 > SW [15] $end
$var wire 1 ? SW [14] $end
$var wire 1 @ SW [13] $end
$var wire 1 A SW [12] $end
$var wire 1 B SW [11] $end
$var wire 1 C SW [10] $end
$var wire 1 D SW [9] $end
$var wire 1 E SW [8] $end
$var wire 1 F SW [7] $end
$var wire 1 G SW [6] $end
$var wire 1 H SW [5] $end
$var wire 1 I SW [4] $end
$var wire 1 J SW [3] $end
$var wire 1 K SW [2] $end
$var wire 1 L SW [1] $end
$var wire 1 M SW [0] $end

$scope module i1 $end
$var wire 1 N gnd $end
$var wire 1 O vcc $end
$var wire 1 P unknown $end
$var wire 1 Q devoe $end
$var wire 1 R devclrn $end
$var wire 1 S devpor $end
$var wire 1 T ww_devoe $end
$var wire 1 U ww_devclrn $end
$var wire 1 V ww_devpor $end
$var wire 1 W ww_clk $end
$var wire 1 X ww_SW [15] $end
$var wire 1 Y ww_SW [14] $end
$var wire 1 Z ww_SW [13] $end
$var wire 1 [ ww_SW [12] $end
$var wire 1 \ ww_SW [11] $end
$var wire 1 ] ww_SW [10] $end
$var wire 1 ^ ww_SW [9] $end
$var wire 1 _ ww_SW [8] $end
$var wire 1 ` ww_SW [7] $end
$var wire 1 a ww_SW [6] $end
$var wire 1 b ww_SW [5] $end
$var wire 1 c ww_SW [4] $end
$var wire 1 d ww_SW [3] $end
$var wire 1 e ww_SW [2] $end
$var wire 1 f ww_SW [1] $end
$var wire 1 g ww_SW [0] $end
$var wire 1 h ww_KEY [3] $end
$var wire 1 i ww_KEY [2] $end
$var wire 1 j ww_KEY [1] $end
$var wire 1 k ww_KEY [0] $end
$var wire 1 l ww_LEDR [15] $end
$var wire 1 m ww_LEDR [14] $end
$var wire 1 n ww_LEDR [13] $end
$var wire 1 o ww_LEDR [12] $end
$var wire 1 p ww_LEDR [11] $end
$var wire 1 q ww_LEDR [10] $end
$var wire 1 r ww_LEDR [9] $end
$var wire 1 s ww_LEDR [8] $end
$var wire 1 t ww_LEDR [7] $end
$var wire 1 u ww_LEDR [6] $end
$var wire 1 v ww_LEDR [5] $end
$var wire 1 w ww_LEDR [4] $end
$var wire 1 x ww_LEDR [3] $end
$var wire 1 y ww_LEDR [2] $end
$var wire 1 z ww_LEDR [1] $end
$var wire 1 { ww_LEDR [0] $end
$var wire 1 | ww_LEDG $end
$var wire 1 } ww_HEX [6] $end
$var wire 1 ~ ww_HEX [5] $end
$var wire 1 !! ww_HEX [4] $end
$var wire 1 "! ww_HEX [3] $end
$var wire 1 #! ww_HEX [2] $end
$var wire 1 $! ww_HEX [1] $end
$var wire 1 %! ww_HEX [0] $end
$var wire 1 &! \clk~inputclkctrl_INCLK_bus\ [3] $end
$var wire 1 '! \clk~inputclkctrl_INCLK_bus\ [2] $end
$var wire 1 (! \clk~inputclkctrl_INCLK_bus\ [1] $end
$var wire 1 )! \clk~inputclkctrl_INCLK_bus\ [0] $end
$var wire 1 *! \KEY[1]~input_o\ $end
$var wire 1 +! \KEY[2]~input_o\ $end
$var wire 1 ,! \KEY[3]~input_o\ $end
$var wire 1 -! \LEDR[0]~output_o\ $end
$var wire 1 .! \LEDR[1]~output_o\ $end
$var wire 1 /! \LEDR[2]~output_o\ $end
$var wire 1 0! \LEDR[3]~output_o\ $end
$var wire 1 1! \LEDR[4]~output_o\ $end
$var wire 1 2! \LEDR[5]~output_o\ $end
$var wire 1 3! \LEDR[6]~output_o\ $end
$var wire 1 4! \LEDR[7]~output_o\ $end
$var wire 1 5! \LEDR[8]~output_o\ $end
$var wire 1 6! \LEDR[9]~output_o\ $end
$var wire 1 7! \LEDR[10]~output_o\ $end
$var wire 1 8! \LEDR[11]~output_o\ $end
$var wire 1 9! \LEDR[12]~output_o\ $end
$var wire 1 :! \LEDR[13]~output_o\ $end
$var wire 1 ;! \LEDR[14]~output_o\ $end
$var wire 1 <! \LEDR[15]~output_o\ $end
$var wire 1 =! \LEDG~output_o\ $end
$var wire 1 >! \HEX[0]~output_o\ $end
$var wire 1 ?! \HEX[1]~output_o\ $end
$var wire 1 @! \HEX[2]~output_o\ $end
$var wire 1 A! \HEX[3]~output_o\ $end
$var wire 1 B! \HEX[4]~output_o\ $end
$var wire 1 C! \HEX[5]~output_o\ $end
$var wire 1 D! \HEX[6]~output_o\ $end
$var wire 1 E! \clk~input_o\ $end
$var wire 1 F! \clk~inputclkctrl_outclk\ $end
$var wire 1 G! \median_inst|div|counter[0]~16_combout\ $end
$var wire 1 H! \KEY[0]~input_o\ $end
$var wire 1 I! \SW[15]~input_o\ $end
$var wire 1 J! \B[15]~feeder_combout\ $end
$var wire 1 K! \state.INPUT_B~feeder_combout\ $end
$var wire 1 L! \state.INPUT_B~q\ $end
$var wire 1 M! \Selector4~1_combout\ $end
$var wire 1 N! \A[15]~feeder_combout\ $end
$var wire 1 O! \Selector3~0_combout\ $end
$var wire 1 P! \SW[14]~input_o\ $end
$var wire 1 Q! \SW[13]~input_o\ $end
$var wire 1 R! \A[13]~feeder_combout\ $end
$var wire 1 S! \B[13]~feeder_combout\ $end
$var wire 1 T! \SW[12]~input_o\ $end
$var wire 1 U! \SW[11]~input_o\ $end
$var wire 1 V! \B[11]~feeder_combout\ $end
$var wire 1 W! \A[11]~feeder_combout\ $end
$var wire 1 X! \SW[10]~input_o\ $end
$var wire 1 Y! \B[10]~feeder_combout\ $end
$var wire 1 Z! \A[10]~feeder_combout\ $end
$var wire 1 [! \SW[9]~input_o\ $end
$var wire 1 \! \B[9]~feeder_combout\ $end
$var wire 1 ]! \A[9]~feeder_combout\ $end
$var wire 1 ^! \SW[8]~input_o\ $end
$var wire 1 _! \B[8]~feeder_combout\ $end
$var wire 1 `! \SW[7]~input_o\ $end
$var wire 1 a! \A[7]~feeder_combout\ $end
$var wire 1 b! \SW[6]~input_o\ $end
$var wire 1 c! \SW[5]~input_o\ $end
$var wire 1 d! \SW[4]~input_o\ $end
$var wire 1 e! \SW[3]~input_o\ $end
$var wire 1 f! \SW[2]~input_o\ $end
$var wire 1 g! \SW[1]~input_o\ $end
$var wire 1 h! \SW[0]~input_o\ $end
$var wire 1 i! \median_inst|div|current_A[1]~16_cout\ $end
$var wire 1 j! \median_inst|div|current_A[1]~18\ $end
$var wire 1 k! \median_inst|div|current_A[2]~20\ $end
$var wire 1 l! \median_inst|div|current_A[3]~22\ $end
$var wire 1 m! \median_inst|div|current_A[4]~24\ $end
$var wire 1 n! \median_inst|div|current_A[5]~26\ $end
$var wire 1 o! \median_inst|div|current_A[6]~28\ $end
$var wire 1 p! \median_inst|div|current_A[7]~30\ $end
$var wire 1 q! \median_inst|div|current_A[8]~32\ $end
$var wire 1 r! \median_inst|div|current_A[9]~34\ $end
$var wire 1 s! \median_inst|div|current_A[10]~36\ $end
$var wire 1 t! \median_inst|div|current_A[11]~38\ $end
$var wire 1 u! \median_inst|div|current_A[12]~40\ $end
$var wire 1 v! \median_inst|div|current_A[13]~42\ $end
$var wire 1 w! \median_inst|div|current_A[14]~44\ $end
$var wire 1 x! \median_inst|div|current_A[15]~45_combout\ $end
$var wire 1 y! \median_inst|div|current_A[15]~feeder_combout\ $end
$var wire 1 z! \median_inst|div|current_A[14]~43_combout\ $end
$var wire 1 {! \median_inst|div|current_A[14]~feeder_combout\ $end
$var wire 1 |! \median_inst|div|current_A[13]~41_combout\ $end
$var wire 1 }! \median_inst|div|current_A[13]~feeder_combout\ $end
$var wire 1 ~! \median_inst|div|current_A[12]~39_combout\ $end
$var wire 1 !" \median_inst|div|current_A[12]~feeder_combout\ $end
$var wire 1 "" \median_inst|div|current_A[11]~37_combout\ $end
$var wire 1 #" \median_inst|div|current_A[11]~feeder_combout\ $end
$var wire 1 $" \median_inst|div|current_A[10]~35_combout\ $end
$var wire 1 %" \median_inst|div|current_A[10]~feeder_combout\ $end
$var wire 1 &" \median_inst|div|current_A[9]~33_combout\ $end
$var wire 1 '" \median_inst|div|current_A[9]~feeder_combout\ $end
$var wire 1 (" \median_inst|div|current_A[8]~31_combout\ $end
$var wire 1 )" \median_inst|div|current_A[8]~feeder_combout\ $end
$var wire 1 *" \median_inst|div|current_A[7]~29_combout\ $end
$var wire 1 +" \median_inst|div|current_A[7]~feeder_combout\ $end
$var wire 1 ," \median_inst|div|current_A[6]~27_combout\ $end
$var wire 1 -" \median_inst|div|current_A[6]~feeder_combout\ $end
$var wire 1 ." \median_inst|div|current_A[5]~25_combout\ $end
$var wire 1 /" \median_inst|div|current_A[5]~feeder_combout\ $end
$var wire 1 0" \median_inst|div|current_A[4]~23_combout\ $end
$var wire 1 1" \median_inst|div|current_A[4]~feeder_combout\ $end
$var wire 1 2" \median_inst|div|current_A[3]~21_combout\ $end
$var wire 1 3" \median_inst|div|current_A[3]~feeder_combout\ $end
$var wire 1 4" \median_inst|div|current_A[2]~19_combout\ $end
$var wire 1 5" \median_inst|div|current_A[2]~feeder_combout\ $end
$var wire 1 6" \median_inst|div|current_A[1]~17_combout\ $end
$var wire 1 7" \median_inst|div|current_A[1]~feeder_combout\ $end
$var wire 1 8" \median_inst|div|current_A[1]~_wirecell_combout\ $end
$var wire 1 9" \median_inst|div|Add0~1_cout\ $end
$var wire 1 :" \median_inst|div|Add0~2_combout\ $end
$var wire 1 ;" \median_inst|div|Add0~3\ $end
$var wire 1 <" \median_inst|div|Add0~4_combout\ $end
$var wire 1 =" \median_inst|div|Add0~5\ $end
$var wire 1 >" \median_inst|div|Add0~6_combout\ $end
$var wire 1 ?" \median_inst|div|Add0~7\ $end
$var wire 1 @" \median_inst|div|Add0~8_combout\ $end
$var wire 1 A" \median_inst|div|Add0~9\ $end
$var wire 1 B" \median_inst|div|Add0~10_combout\ $end
$var wire 1 C" \median_inst|div|Add0~11\ $end
$var wire 1 D" \median_inst|div|Add0~12_combout\ $end
$var wire 1 E" \median_inst|div|Add0~13\ $end
$var wire 1 F" \median_inst|div|Add0~14_combout\ $end
$var wire 1 G" \median_inst|div|Add0~15\ $end
$var wire 1 H" \median_inst|div|Add0~16_combout\ $end
$var wire 1 I" \median_inst|div|Add0~17\ $end
$var wire 1 J" \median_inst|div|Add0~18_combout\ $end
$var wire 1 K" \median_inst|div|Add0~19\ $end
$var wire 1 L" \median_inst|div|Add0~20_combout\ $end
$var wire 1 M" \median_inst|div|Add0~21\ $end
$var wire 1 N" \median_inst|div|Add0~22_combout\ $end
$var wire 1 O" \median_inst|div|Add0~23\ $end
$var wire 1 P" \median_inst|div|Add0~24_combout\ $end
$var wire 1 Q" \median_inst|div|Add0~25\ $end
$var wire 1 R" \median_inst|div|Add0~26_combout\ $end
$var wire 1 S" \median_inst|div|Add0~27\ $end
$var wire 1 T" \median_inst|div|Add0~28_combout\ $end
$var wire 1 U" \median_inst|div|LessThan0~3_combout\ $end
$var wire 1 V" \median_inst|div|LessThan0~1_combout\ $end
$var wire 1 W" \median_inst|div|LessThan0~0_combout\ $end
$var wire 1 X" \median_inst|div|LessThan0~2_combout\ $end
$var wire 1 Y" \median_inst|div|LessThan0~4_combout\ $end
$var wire 1 Z" \median_inst|div|done~0_combout\ $end
$var wire 1 [" \median_inst|div|done~q\ $end
$var wire 1 \" \Selector4~0_combout\ $end
$var wire 1 ]" \state.ACTIVE~q\ $end
$var wire 1 ^" \Selector1~0_combout\ $end
$var wire 1 _" \state.IDLE~q\ $end
$var wire 1 `" \state.INPUT_A~0_combout\ $end
$var wire 1 a" \state.INPUT_A~q\ $end
$var wire 1 b" \Selector0~0_combout\ $end
$var wire 1 c" \Selector0~1_combout\ $end
$var wire 1 d" \start~q\ $end
$var wire 1 e" \median_inst|div|counter~18_combout\ $end
$var wire 1 f" \median_inst|div|state~feeder_combout\ $end
$var wire 1 g" \median_inst|div|state~q\ $end
$var wire 1 h" \median_inst|div|counter[0]~17\ $end
$var wire 1 i" \median_inst|div|counter[1]~19_combout\ $end
$var wire 1 j" \median_inst|div|counter[1]~20\ $end
$var wire 1 k" \median_inst|div|counter[2]~21_combout\ $end
$var wire 1 l" \median_inst|div|counter[2]~22\ $end
$var wire 1 m" \median_inst|div|counter[3]~23_combout\ $end
$var wire 1 n" \median_inst|div|counter[3]~24\ $end
$var wire 1 o" \median_inst|div|counter[4]~25_combout\ $end
$var wire 1 p" \median_inst|div|counter[4]~26\ $end
$var wire 1 q" \median_inst|div|counter[5]~27_combout\ $end
$var wire 1 r" \median_inst|div|counter[5]~28\ $end
$var wire 1 s" \median_inst|div|counter[6]~29_combout\ $end
$var wire 1 t" \median_inst|div|counter[6]~30\ $end
$var wire 1 u" \median_inst|div|counter[7]~31_combout\ $end
$var wire 1 v" \median_inst|div|counter[7]~32\ $end
$var wire 1 w" \median_inst|div|counter[8]~33_combout\ $end
$var wire 1 x" \median_inst|div|counter[8]~34\ $end
$var wire 1 y" \median_inst|div|counter[9]~35_combout\ $end
$var wire 1 z" \median_inst|div|counter[9]~36\ $end
$var wire 1 {" \median_inst|div|counter[10]~37_combout\ $end
$var wire 1 |" \median_inst|div|counter[10]~38\ $end
$var wire 1 }" \median_inst|div|counter[11]~39_combout\ $end
$var wire 1 ~" \median_inst|div|counter[11]~40\ $end
$var wire 1 !# \median_inst|div|counter[12]~41_combout\ $end
$var wire 1 "# \median_inst|div|counter[12]~42\ $end
$var wire 1 ## \median_inst|div|counter[13]~43_combout\ $end
$var wire 1 $# \median_inst|div|counter[13]~44\ $end
$var wire 1 %# \median_inst|div|counter[14]~45_combout\ $end
$var wire 1 &# \median_inst|div|counter[14]~46\ $end
$var wire 1 '# \median_inst|div|counter[15]~47_combout\ $end
$var wire 1 (# \HEX~0_combout\ $end
$var wire 1 )# \HEX[0]~reg0_q\ $end
$var wire 1 *# \HEX[1]~reg0feeder_combout\ $end
$var wire 1 +# \HEX[1]~reg0_q\ $end
$var wire 1 ,# \HEX~1_combout\ $end
$var wire 1 -# \HEX[3]~reg0_q\ $end
$var wire 1 .# \HEX[4]~3_combout\ $end
$var wire 1 /# \HEX[4]~reg0_q\ $end
$var wire 1 0# \HEX[5]~4_combout\ $end
$var wire 1 1# \HEX[5]~reg0_q\ $end
$var wire 1 2# \HEX~2_combout\ $end
$var wire 1 3# \HEX[6]~reg0_q\ $end
$var wire 1 4# B [15] $end
$var wire 1 5# B [14] $end
$var wire 1 6# B [13] $end
$var wire 1 7# B [12] $end
$var wire 1 8# B [11] $end
$var wire 1 9# B [10] $end
$var wire 1 :# B [9] $end
$var wire 1 ;# B [8] $end
$var wire 1 <# B [7] $end
$var wire 1 =# B [6] $end
$var wire 1 ># B [5] $end
$var wire 1 ?# B [4] $end
$var wire 1 @# B [3] $end
$var wire 1 A# B [2] $end
$var wire 1 B# B [1] $end
$var wire 1 C# B [0] $end
$var wire 1 D# A [15] $end
$var wire 1 E# A [14] $end
$var wire 1 F# A [13] $end
$var wire 1 G# A [12] $end
$var wire 1 H# A [11] $end
$var wire 1 I# A [10] $end
$var wire 1 J# A [9] $end
$var wire 1 K# A [8] $end
$var wire 1 L# A [7] $end
$var wire 1 M# A [6] $end
$var wire 1 N# A [5] $end
$var wire 1 O# A [4] $end
$var wire 1 P# A [3] $end
$var wire 1 Q# A [2] $end
$var wire 1 R# A [1] $end
$var wire 1 S# A [0] $end
$var wire 1 T# \median_inst|div|counter\ [15] $end
$var wire 1 U# \median_inst|div|counter\ [14] $end
$var wire 1 V# \median_inst|div|counter\ [13] $end
$var wire 1 W# \median_inst|div|counter\ [12] $end
$var wire 1 X# \median_inst|div|counter\ [11] $end
$var wire 1 Y# \median_inst|div|counter\ [10] $end
$var wire 1 Z# \median_inst|div|counter\ [9] $end
$var wire 1 [# \median_inst|div|counter\ [8] $end
$var wire 1 \# \median_inst|div|counter\ [7] $end
$var wire 1 ]# \median_inst|div|counter\ [6] $end
$var wire 1 ^# \median_inst|div|counter\ [5] $end
$var wire 1 _# \median_inst|div|counter\ [4] $end
$var wire 1 `# \median_inst|div|counter\ [3] $end
$var wire 1 a# \median_inst|div|counter\ [2] $end
$var wire 1 b# \median_inst|div|counter\ [1] $end
$var wire 1 c# \median_inst|div|counter\ [0] $end
$var wire 1 d# \median_inst|div|current_A\ [15] $end
$var wire 1 e# \median_inst|div|current_A\ [14] $end
$var wire 1 f# \median_inst|div|current_A\ [13] $end
$var wire 1 g# \median_inst|div|current_A\ [12] $end
$var wire 1 h# \median_inst|div|current_A\ [11] $end
$var wire 1 i# \median_inst|div|current_A\ [10] $end
$var wire 1 j# \median_inst|div|current_A\ [9] $end
$var wire 1 k# \median_inst|div|current_A\ [8] $end
$var wire 1 l# \median_inst|div|current_A\ [7] $end
$var wire 1 m# \median_inst|div|current_A\ [6] $end
$var wire 1 n# \median_inst|div|current_A\ [5] $end
$var wire 1 o# \median_inst|div|current_A\ [4] $end
$var wire 1 p# \median_inst|div|current_A\ [3] $end
$var wire 1 q# \median_inst|div|current_A\ [2] $end
$var wire 1 r# \median_inst|div|current_A\ [1] $end
$var wire 1 s# \median_inst|div|current_A\ [0] $end
$var wire 1 t# \median_inst|div|ALT_INV_state~q\ $end
$upscope $end
$upscope $end
$enddefinitions $end
#0
$dumpvars
0!
0-
0N
1O
xP
1Q
1R
1S
1T
1U
1V
0W
0|
0*!
0+!
0,!
0-!
0.!
0/!
00!
01!
02!
03!
04!
05!
06!
07!
08!
09!
0:!
0;!
0<!
0=!
0>!
0?!
0@!
0A!
0B!
0C!
0D!
0E!
0F!
1G!
0H!
0I!
0J!
0K!
0L!
0M!
0N!
0O!
0P!
0Q!
0R!
0S!
0T!
0U!
0V!
0W!
0X!
0Y!
0Z!
0[!
0\!
0]!
0^!
0_!
0`!
0a!
0b!
0c!
0d!
0e!
0f!
0g!
0h!
0i!
1j!
0k!
1l!
0m!
1n!
0o!
1p!
0q!
1r!
0s!
1t!
0u!
1v!
0w!
0x!
0y!
0z!
0{!
0|!
0}!
0~!
0!"
0""
0#"
0$"
0%"
0&"
0'"
0("
0)"
0*"
0+"
0,"
0-"
0."
0/"
00"
01"
02"
03"
04"
05"
06"
07"
18"
09"
1:"
1;"
1<"
0="
1>"
1?"
1@"
0A"
1B"
1C"
1D"
0E"
1F"
1G"
1H"
0I"
1J"
1K"
1L"
0M"
1N"
1O"
1P"
0Q"
1R"
1S"
1T"
0U"
0V"
0W"
0X"
0Y"
1Z"
0["
0\"
0]"
0^"
0_"
1`"
0a"
0b"
0c"
0d"
0e"
0f"
0g"
0h"
0i"
1j"
0k"
0l"
0m"
1n"
0o"
0p"
0q"
1r"
0s"
0t"
0u"
1v"
0w"
0x"
0y"
1z"
0{"
0|"
0}"
1~"
0!#
0"#
0##
1$#
0%#
0&#
0'#
1(#
0)#
0*#
0+#
1,#
0-#
1.#
0/#
10#
01#
12#
03#
1t#
0)
0*
0+
0,
0>
0?
0@
0A
0B
0C
0D
0E
0F
0G
0H
0I
0J
0K
0L
0M
0X
0Y
0Z
0[
0\
0]
0^
0_
0`
0a
0b
0c
0d
0e
0f
0g
0h
0i
0j
0k
0l
0m
0n
0o
0p
0q
0r
0s
0t
0u
0v
0w
0x
0y
0z
0{
0}
0~
0!!
0"!
0#!
0$!
0%!
04#
05#
06#
07#
08#
09#
0:#
0;#
0<#
0=#
0>#
0?#
0@#
0A#
0B#
0C#
0D#
0E#
0F#
0G#
0H#
0I#
0J#
0K#
0L#
0M#
0N#
0O#
0P#
0Q#
0R#
0S#
0T#
0U#
0V#
0W#
0X#
0Y#
0Z#
0[#
0\#
0]#
0^#
0_#
0`#
0a#
0b#
0c#
0d#
0e#
0f#
0g#
0h#
0i#
0j#
0k#
0l#
0m#
0n#
0o#
0p#
0q#
0r#
xs#
1&!
1'!
1(!
0)!
0"
0#
0$
0%
0&
0'
0(
0.
0/
00
01
02
03
04
05
06
07
08
09
0:
0;
0<
0=
$end
#10000
1,
1J
1k
1d
1e!
1H!
1^"
#20000
1!
1W
1E!
1)!
1F!
1_"
1a"
1)#
1-#
1/#
11#
13#
1K!
1O!
0`"
0(#
0.#
00#
02#
1D!
1C!
1B!
1A!
1>!
1}
1~
1!!
1"!
1%!
1(
1%
1$
1#
1"
#40000
0!
0,
0W
0k
0H!
0E!
0)!
0O!
0F!
#50000
1,
1k
1H!
1O!
#60000
1!
1W
1E!
1)!
1F!
1L!
1P#
0a"
0)#
0/#
01#
03#
0K!
0O!
0,#
12"
1M!
1\"
1(#
1*#
13"
0D!
0C!
0B!
0>!
0}
0~
0!!
0%!
0(
0$
0#
0"
#70000
0,
0k
0H!
0M!
0\"
#80000
0!
0W
0E!
0)!
0F!
#90000
1,
0J
1L
1k
1f
0d
0e!
1g!
1H!
1M!
1\"
#100000
1!
1W
1E!
1)!
1F!
0L!
1B#
1]"
1)#
1+#
0-#
1b"
12#
16"
0M!
0(#
0*#
17"
1c"
0A!
1?!
1>!
0"!
1$!
1%!
1(
1'
0%
#110000
0,
0k
0H!
#120000
0!
0W
0E!
0)!
0F!
#140000
1!
1W
1E!
1)!
1F!
1d"
0)#
0+#
13#
1e"
1f"
1D!
0?!
0>!
1}
0$!
0%!
0(
0'
1"
#160000
0!
0W
0E!
0)!
0F!
#180000
1!
0L
1K
1W
0f
1e
1f!
0g!
1E!
1)!
1F!
1r#
1p#
1g"
0t#
0e"
0<"
1="
08"
19"
1W"
1Y"
0:"
0;"
0>"
0?"
0f"
0@"
1A"
1<"
0Z"
1e"
1f"
0B"
0C"
0D"
1E"
0F"
0G"
0H"
1I"
0J"
0K"
0L"
1M"
0N"
0O"
0P"
1Q"
0R"
0S"
0T"
#200000
0!
0W
0E!
0)!
0F!
#220000
1!
1W
1E!
1)!
1F!
0r#
1c#
0G!
1h"
18"
09"
1:"
1;"
1i"
1-!
0<"
1{
1=
#240000
0!
0W
0E!
0)!
0F!
#260000
1!
0K
1W
0e
0f!
1E!
1)!
1F!
1r#
1q#
0p#
0c#
1b#
0i"
0j"
1G!
0h"
1<"
0="
0:"
0;"
08"
19"
1:"
0<"
1="
1>"
1?"
1i"
1j"
1k"
1.!
0-!
0k"
1@"
0A"
0>"
0?"
1z
0{
0=
1<
0@"
1A"
1B"
1C"
1D"
0E"
0B"
0C"
0D"
1E"
1F"
1G"
1H"
0I"
0F"
0G"
0H"
1I"
1J"
1K"
1L"
0M"
0J"
0K"
0L"
1M"
1N"
1O"
1P"
0Q"
0N"
0O"
0P"
1Q"
1R"
1S"
1T"
0R"
0S"
0T"
#280000
0!
0W
0E!
0)!
0F!
#300000
1!
1W
1E!
1)!
1F!
0r#
1c#
0G!
1h"
18"
09"
0:"
0i"
0j"
1-!
1k"
1{
1=
#320000
0!
0W
0E!
0)!
0F!
#340000
1!
1W
1E!
1)!
1F!
1r#
0q#
0c#
0b#
1a#
0k"
1l"
1i"
1j"
1G!
0h"
1:"
1;"
08"
19"
0:"
0;"
1<"
0="
0i"
1k"
0l"
1m"
1/!
0.!
0-!
0m"
1>"
1?"
0<"
1="
1y
0z
0{
0=
0<
1;
0>"
0?"
1@"
0A"
1B"
1C"
0@"
1A"
0B"
0C"
1D"
0E"
1F"
1G"
0D"
1E"
0F"
0G"
1H"
0I"
1J"
1K"
0H"
1I"
0J"
0K"
1L"
0M"
1N"
1O"
0L"
1M"
0N"
0O"
1P"
0Q"
1R"
1S"
0P"
1Q"
0R"
0S"
1T"
0T"
#360000
0!
0W
0E!
0)!
0F!
#380000
1!
1W
1E!
1)!
1F!
0r#
1c#
0G!
1h"
18"
09"
0W"
0Y"
1:"
1;"
1i"
1-!
1<"
0="
1Z"
0e"
1{
1=
0f"
1>"
1?"
1@"
0A"
1B"
1C"
1D"
0E"
1F"
1G"
1H"
0I"
1J"
1K"
1L"
0M"
1N"
1O"
1P"
0Q"
1R"
1S"
1T"
#400000
0!
0W
0E!
0)!
0F!
#420000
1!
1W
1E!
1)!
1F!
1["
0g"
1t#
1e"
0\"
0^"
0b"
0c"
1f"
1=!
1|
1-
#440000
0!
0W
0E!
0)!
0F!
#460000
1!
1W
1E!
1)!
1F!
1r#
1p#
0["
0]"
0_"
0d"
1g"
0c#
0a#
0t#
0k"
1G!
0h"
0e"
1`"
1(#
1,#
1.#
10#
0<"
1="
08"
19"
1W"
1Y"
0:"
0;"
0>"
0?"
0f"
0i"
0/!
0-!
0=!
0@"
1A"
1<"
0Z"
1e"
0y
0{
0|
0=
0;
0-
1f"
0B"
0C"
0D"
1E"
0F"
0G"
0H"
1I"
0J"
0K"
0L"
1M"
0N"
0O"
0P"
1Q"
0R"
0S"
0T"
#480000
0!
0W
0E!
0)!
0F!
#500000
1!
1W
1E!
1)!
1F!
0r#
1c#
1)#
1-#
1/#
11#
0G!
1h"
18"
09"
1:"
1;"
1i"
1C!
1B!
1A!
1>!
1-!
0<"
1~
1!!
1"!
1%!
1{
1(
1%
1$
1#
1=
#520000
0!
0W
0E!
0)!
0F!
#540000
1!
1W
1E!
1)!
1F!
1r#
1q#
0p#
0c#
1b#
0i"
0j"
1G!
0h"
1<"
0="
0:"
0;"
08"
19"
1:"
0<"
1="
1>"
1?"
1i"
1j"
1k"
1.!
0-!
0k"
1@"
0A"
0>"
0?"
1z
0{
0=
1<
0@"
1A"
1B"
1C"
1D"
0E"
0B"
0C"
0D"
1E"
1F"
1G"
1H"
0I"
0F"
0G"
0H"
1I"
1J"
1K"
1L"
0M"
0J"
0K"
0L"
1M"
1N"
1O"
1P"
0Q"
0N"
0O"
0P"
1Q"
1R"
1S"
1T"
0R"
0S"
0T"
#560000
0!
0W
0E!
0)!
0F!
#580000
1!
1W
1E!
1)!
1F!
0r#
1c#
0G!
1h"
18"
09"
0:"
0i"
0j"
1-!
1k"
1{
1=
#600000
0!
0W
0E!
0)!
0F!
#620000
1!
1W
1E!
1)!
1F!
1r#
0q#
0c#
0b#
1a#
0k"
1l"
1i"
1j"
1G!
0h"
1:"
1;"
08"
19"
0:"
0;"
1<"
0="
0i"
1k"
0l"
1m"
1/!
0.!
0-!
0m"
1>"
1?"
0<"
1="
1y
0z
0{
0=
0<
1;
0>"
0?"
1@"
0A"
1B"
1C"
0@"
1A"
0B"
0C"
1D"
0E"
1F"
1G"
0D"
1E"
0F"
0G"
1H"
0I"
1J"
1K"
0H"
1I"
0J"
0K"
1L"
0M"
1N"
1O"
0L"
1M"
0N"
0O"
1P"
0Q"
1R"
1S"
0P"
1Q"
0R"
0S"
1T"
0T"
#640000
0!
0W
0E!
0)!
0F!
#660000
1!
1W
1E!
1)!
1F!
0r#
1c#
0G!
1h"
18"
09"
0W"
0Y"
1:"
1;"
1i"
1-!
1<"
0="
1Z"
0e"
1{
1=
0f"
1>"
1?"
1@"
0A"
1B"
1C"
1D"
0E"
1F"
1G"
1H"
0I"
1J"
1K"
1L"
0M"
1N"
1O"
1P"
0Q"
1R"
1S"
1T"
#680000
0!
0W
0E!
0)!
0F!
#700000
1!
1W
1E!
1)!
1F!
1["
0g"
1t#
1=!
1|
1-
#720000
0!
0W
0E!
0)!
0F!
#740000
1!
1W
1E!
1)!
1F!
0["
0=!
0|
0-
#760000
0!
0W
0E!
0)!
0F!
#780000
1!
1W
1E!
1)!
1F!
#800000
0!
0W
0E!
0)!
0F!
#820000
1!
1W
1E!
1)!
1F!
#840000
0!
0W
0E!
0)!
0F!
#860000
1!
1W
1E!
1)!
1F!
#880000
0!
0W
0E!
0)!
0F!
#900000
1!
1W
1E!
1)!
1F!
#920000
0!
0W
0E!
0)!
0F!
#940000
1!
1W
1E!
1)!
1F!
#960000
0!
0W
0E!
0)!
0F!
#980000
1!
1W
1E!
1)!
1F!
